{
	"info": {
		"_postman_id": "2b198458-52de-4330-a483-a2cfab33291d",
		"name": "santander-challange",
		"schema": "https://schema.getpostman.com/json/collection/v2.1.0/collection.json"
	},
	"item": [
		{
			"name": "users",
			"item": [
				{
					"name": "users - get all",
					"request": {
						"method": "GET",
						"header": [],
						"body": {
							"mode": "raw",
							"raw": ""
						},
						"url": {
							"raw": "http://localhost:3000/user",
							"protocol": "http",
							"host": [
								"localhost"
							],
							"port": "3000",
							"path": [
								"user"
							]
						}
					},
					"response": []
				},
				{
					"name": "users - save",
					"request": {
						"method": "POST",
						"header": [
							{
								"key": "Content-Type",
								"name": "Content-Type",
								"value": "application/json",
								"type": "text"
							}
						],
						"body": {
							"mode": "raw",
							"raw": "{\n    \"isEnabled\": true,\n    \"isAdmin\": true,\n    \"createdOn\": \"2020-01-22T01:29:00.171Z\",\n    \"_id\": \"5e271f4e7fe3aa5d4c27d98a\",\n    \"firstName\": \"Rodrigo\",\n    \"lastName\": \"Calvo\",\n    \"username\": \"rodrigocalvo95@gmail.com\",\n    \"password\": \"asd1234\",\n    \"__v\": 0\n}"
						},
						"url": {
							"raw": "http://localhost:3000/user",
							"protocol": "http",
							"host": [
								"localhost"
							],
							"port": "3000",
							"path": [
								"user"
							]
						}
					},
					"response": []
				},
				{
					"name": "users - get",
					"request": {
						"method": "GET",
						"header": [],
						"body": {
							"mode": "raw",
							"raw": ""
						},
						"url": {
							"raw": "http://localhost:3000/user/5e271f4e7fe3aa5d4c27d98a",
							"protocol": "http",
							"host": [
								"localhost"
							],
							"port": "3000",
							"path": [
								"user",
								"5e271f4e7fe3aa5d4c27d98a"
							]
						}
					},
					"response": []
				},
				{
					"name": "users - delete",
					"request": {
						"method": "DELETE",
						"header": [],
						"body": {
							"mode": "raw",
							"raw": ""
						},
						"url": {
							"raw": "http://localhost:3000/user/5e271f287fe3aa5d4c27d989",
							"protocol": "http",
							"host": [
								"localhost"
							],
							"port": "3000",
							"path": [
								"user",
								"5e271f287fe3aa5d4c27d989"
							]
						}
					},
					"response": []
				},
				{
					"name": "users - update",
					"request": {
						"method": "PUT",
						"header": [
							{
								"key": "Content-Type",
								"name": "Content-Type",
								"value": "application/json",
								"type": "text"
							}
						],
						"body": {
							"mode": "raw",
							"raw": "{\r\n    \"isEnabled\": true,\r\n    \"isAdmin\": true,\r\n    \"allowNotifications\": true,\r\n    \"createdOn\": \"2020-01-22T01:29:00.171Z\",\r\n    \"_id\": \"5e271f4e7fe3aa5d4c27d98a\",\r\n    \"firstName\": \"Rodrigo\",\r\n    \"lastName\": \"Calvo\",\r\n    \"username\": \"rodrigocalvo95@gmail.com\",\r\n    \"password\": \"asd1234\",\r\n    \"__v\": 0\r\n}"
						},
						"url": {
							"raw": "http://localhost:3000/user",
							"protocol": "http",
							"host": [
								"localhost"
							],
							"port": "3000",
							"path": [
								"user"
							]
						}
					},
					"response": []
				},
				{
					"name": "users - login",
					"request": {
						"method": "POST",
						"header": [
							{
								"key": "Content-Type",
								"name": "Content-Type",
								"value": "application/json",
								"type": "text"
							}
						],
						"body": {
							"mode": "raw",
							"raw": "{\n    \"isEnabled\": true,\n    \"isAdmin\": true,\n    \"createdOn\": \"2020-01-22T01:29:00.171Z\",\n    \"_id\": \"5e271f4e7fe3aa5d4c27d98a\",\n    \"firstName\": \"Rodrigo\",\n    \"lastName\": \"Calvo\",\n    \"username\": \"rodrigocalvo95@gmail.com\",\n    \"password\": \"asd1234\",\n    \"__v\": 0\n}"
						},
						"url": {
							"raw": "http://localhost:3000/user",
							"protocol": "http",
							"host": [
								"localhost"
							],
							"port": "3000",
							"path": [
								"user"
							]
						}
					},
					"response": []
				}
			]
		},
		{
			"name": "meetups",
			"item": [
				{
					"name": "meetups - get all",
					"request": {
						"method": "GET",
						"header": [],
						"body": {
							"mode": "raw",
							"raw": ""
						},
						"url": {
							"raw": "http://localhost:3000/meetup",
							"protocol": "http",
							"host": [
								"localhost"
							],
							"port": "3000",
							"path": [
								"meetup"
							]
						}
					},
					"response": []
				},
				{
					"name": "meetups - save",
					"request": {
						"method": "POST",
						"header": [
							{
								"key": "Content-Type",
								"name": "Content-Type",
								"type": "text",
								"value": "application/json"
							}
						],
						"body": {
							"mode": "raw",
							"raw": "{\r\n    \"creator\": \"5e271f4e7fe3aa5d4c27d98a\",\r\n    \"description\": \"septima meetup\"\r\n}"
						},
						"url": {
							"raw": "http://localhost:3000/meetup",
							"protocol": "http",
							"host": [
								"localhost"
							],
							"port": "3000",
							"path": [
								"meetup"
							]
						}
					},
					"response": []
				},
				{
					"name": "meetups  - get",
					"protocolProfileBehavior": {
						"disableBodyPruning": true
					},
					"request": {
						"method": "GET",
						"header": [
							{
								"key": "Content-Type",
								"name": "Content-Type",
								"value": "application/x-www-form-urlencoded",
								"type": "text"
							}
						],
						"body": {
							"mode": "raw",
							"raw": ""
						},
						"url": {
							"raw": "http://localhost:3000/meetup/5e2a6724437da42d787b9577",
							"protocol": "http",
							"host": [
								"localhost"
							],
							"port": "3000",
							"path": [
								"meetup",
								"5e2a6724437da42d787b9577"
							]
						}
					},
					"response": []
				},
				{
					"name": "meetups  - get populated",
					"request": {
						"method": "GET",
						"header": [],
						"body": {
							"mode": "raw",
							"raw": ""
						},
						"url": {
							"raw": "http://localhost:3000/meetup/5e2896a849a63578244cc1af/populated",
							"protocol": "http",
							"host": [
								"localhost"
							],
							"port": "3000",
							"path": [
								"meetup",
								"5e2896a849a63578244cc1af",
								"populated"
							]
						}
					},
					"response": []
				},
				{
					"name": "meetups - delete",
					"request": {
						"method": "DELETE",
						"header": [],
						"body": {
							"mode": "raw",
							"raw": ""
						},
						"url": {
							"raw": "http://localhost:3000/meetup/5e2a6724437da42d787b9573",
							"protocol": "http",
							"host": [
								"localhost"
							],
							"port": "3000",
							"path": [
								"meetup",
								"5e2a6724437da42d787b9573"
							]
						}
					},
					"response": []
				},
				{
					"name": "meetups - update",
					"request": {
						"method": "PUT",
						"header": [
							{
								"key": "Content-Type",
								"name": "Content-Type",
								"type": "text",
								"value": "application/json"
							}
						],
						"body": {
							"mode": "raw",
							"raw": "\r\n{\r\n    \"date\": \"2020-01-29T18:37:14.084Z\",\r\n    \"_id\": \"5e2db0e2076be944c0f63678\"\r\n}"
						},
						"url": {
							"raw": "http://localhost:3000/meetup",
							"protocol": "http",
							"host": [
								"localhost"
							],
							"port": "3000",
							"path": [
								"meetup"
							]
						}
					},
					"response": []
				},
				{
					"name": "meetups - checkin",
					"request": {
						"method": "PUT",
						"header": [
							{
								"key": "Content-Type",
								"name": "Content-Type",
								"type": "text",
								"value": "application/json"
							}
						],
						"body": {
							"mode": "raw",
							"raw": "\r\n{\r\n    \"userId\": \"5e271f4e7fe3aa5d4c27d98a\"\r\n}"
						},
						"url": {
							"raw": "http://localhost:3000/meetup/5e2896a849a63578244cc1af/checkin",
							"protocol": "http",
							"host": [
								"localhost"
							],
							"port": "3000",
							"path": [
								"meetup",
								"5e2896a849a63578244cc1af",
								"checkin"
							]
						}
					},
					"response": []
				},
				{
					"name": "meetups - register",
					"request": {
						"method": "PUT",
						"header": [
							{
								"key": "Content-Type",
								"name": "Content-Type",
								"type": "text",
								"value": "application/json"
							}
						],
						"body": {
							"mode": "raw",
							"raw": "\r\n{\r\n    \"userId\": \"5e271f4e7fe3aa5d4c27d98a\"\r\n}"
						},
						"url": {
							"raw": "http://localhost:3000/meetup/5e2a622f437da42d787b9566/register",
							"protocol": "http",
							"host": [
								"localhost"
							],
							"port": "3000",
							"path": [
								"meetup",
								"5e2a622f437da42d787b9566",
								"register"
							]
						}
					},
					"response": []
				},
				{
					"name": "meetups  - beers",
					"request": {
						"method": "GET",
						"header": [],
						"body": {
							"mode": "raw",
							"raw": ""
						},
						"url": {
							"raw": "http://localhost:3000/meetup/5e2db0e2076be944c0f63678/beers",
							"protocol": "http",
							"host": [
								"localhost"
							],
							"port": "3000",
							"path": [
								"meetup",
								"5e2db0e2076be944c0f63678",
								"beers"
							]
						}
					},
					"response": []
				},
				{
					"name": "meetup - weather",
					"request": {
						"method": "GET",
						"header": [],
						"body": {
							"mode": "raw",
							"raw": ""
						},
						"url": {
							"raw": "http://localhost:3000/meetup/5e2a6724437da42d787b9573/weather",
							"protocol": "http",
							"host": [
								"localhost"
							],
							"port": "3000",
							"path": [
								"meetup",
								"5e2a6724437da42d787b9573",
								"weather"
							]
						}
					},
					"response": []
				}
			]
		},
		{
			"name": "invitations",
			"item": [
				{
					"name": "invitations - get all",
					"request": {
						"method": "GET",
						"header": [],
						"body": {
							"mode": "raw",
							"raw": ""
						},
						"url": {
							"raw": "http://localhost:3000/invitation",
							"protocol": "http",
							"host": [
								"localhost"
							],
							"port": "3000",
							"path": [
								"invitation"
							]
						}
					},
					"response": []
				},
				{
					"name": "invitations - save",
					"request": {
						"method": "POST",
						"header": [
							{
								"key": "Content-Type",
								"name": "Content-Type",
								"type": "text",
								"value": "application/json"
							}
						],
						"body": {
							"mode": "raw",
							"raw": "{\r\n        \"from\": \"5e271f4e7fe3aa5d4c27d98a\",\r\n        \"to\": \"5e271f4e7fe3aa5d4c27d98a\",\r\n        \"meetup\": \"5e2db0e2076be944c0f63678\"\r\n}"
						},
						"url": {
							"raw": "http://localhost:3000/invitation",
							"protocol": "http",
							"host": [
								"localhost"
							],
							"port": "3000",
							"path": [
								"invitation"
							]
						}
					},
					"response": []
				},
				{
					"name": "invitations - get",
					"request": {
						"method": "GET",
						"header": [],
						"body": {
							"mode": "raw",
							"raw": ""
						},
						"url": {
							"raw": "http://localhost:3000/invitation/5e271f4e7fe3aa5d4c27d98a",
							"protocol": "http",
							"host": [
								"localhost"
							],
							"port": "3000",
							"path": [
								"invitation",
								"5e271f4e7fe3aa5d4c27d98a"
							]
						}
					},
					"response": []
				},
				{
					"name": "invitations - delete",
					"request": {
						"method": "DELETE",
						"header": [],
						"body": {
							"mode": "raw",
							"raw": ""
						},
						"url": {
							"raw": "http://localhost:3000/invitation/5e2db0f3076be944c0f63679",
							"protocol": "http",
							"host": [
								"localhost"
							],
							"port": "3000",
							"path": [
								"invitation",
								"5e2db0f3076be944c0f63679"
							]
						}
					},
					"response": []
				},
				{
					"name": "invitations - update",
					"request": {
						"method": "PUT",
						"header": [
							{
								"key": "Content-Type",
								"name": "Content-Type",
								"type": "text",
								"value": "application/json"
							}
						],
						"body": {
							"mode": "raw",
							"raw": "{\r\n    \"_id\": \"5e271f4e7fe3aa5d4c27d98a\",\r\n    \"firstName\": \"Rodrigo\",\r\n    \"lastName\": \"Calvo\",\r\n    \"username\": \"rodrigocalvo95@gmail.com\",\r\n    \"password\": \"asd1234\",\r\n    \"isEnabled\": true,\r\n    \"__v\": 0\r\n}"
						},
						"url": {
							"raw": "http://localhost:3000/invitation",
							"protocol": "http",
							"host": [
								"localhost"
							],
							"port": "3000",
							"path": [
								"invitation"
							]
						}
					},
					"response": []
				},
				{
					"name": "invitations - aceptar",
					"request": {
						"method": "PUT",
						"header": [
							{
								"key": "Content-Type",
								"name": "Content-Type",
								"type": "text",
								"value": "application/json"
							}
						],
						"body": {
							"mode": "raw",
							"raw": "{\n    \"_id\": \"5e2a672a437da42d787b9574\"\n}"
						},
						"url": {
							"raw": "http://localhost:3000/invitation/accept",
							"protocol": "http",
							"host": [
								"localhost"
							],
							"port": "3000",
							"path": [
								"invitation",
								"accept"
							]
						}
					},
					"response": []
				},
				{
					"name": "invitations - rechazar",
					"request": {
						"method": "PUT",
						"header": [
							{
								"key": "Content-Type",
								"name": "Content-Type",
								"type": "text",
								"value": "application/json"
							}
						],
						"body": {
							"mode": "raw",
							"raw": "{\n    \"_id\": \"5e2898e89d635970981f3442\"\n}"
						},
						"url": {
							"raw": "http://localhost:3000/invitation/decline",
							"protocol": "http",
							"host": [
								"localhost"
							],
							"port": "3000",
							"path": [
								"invitation",
								"decline"
							]
						}
					},
					"response": []
				}
			]
		},
		{
			"name": "https://community-open-weather-map.p.rapidapi.com/forecast/daily?id=2172797&units=metric&mode=xml%2C html&q=Buenos Aires, AR",
			"request": {
				"method": "GET",
				"header": [
					{
						"key": "x-rapidapi-host",
						"value": "community-open-weather-map.p.rapidapi.com",
						"type": "text"
					},
					{
						"key": "x-rapidapi-key",
						"value": "8ec80ab114mshf3d022f0a6d941fp1e4d1ejsne89600006fac",
						"type": "text"
					}
				],
				"body": {
					"mode": "raw",
					"raw": ""
				},
				"url": {
					"raw": "https://community-open-weather-map.p.rapidapi.com/forecast/daily?id=2172797&units=metric&mode=xml%2C html&q=Buenos Aires, AR",
					"protocol": "https",
					"host": [
						"community-open-weather-map",
						"p",
						"rapidapi",
						"com"
					],
					"path": [
						"forecast",
						"daily"
					],
					"query": [
						{
							"key": "id",
							"value": "2172797"
						},
						{
							"key": "units",
							"value": "metric"
						},
						{
							"key": "mode",
							"value": "xml%2C html"
						},
						{
							"key": "q",
							"value": "Buenos Aires, AR"
						},
						{
							"key": "",
							"value": "",
							"disabled": true
						},
						{
							"key": "callback",
							"value": "test",
							"disabled": true
						},
						{
							"key": "",
							"value": "",
							"disabled": true
						}
					]
				}
			},
			"response": []
		},
		{
			"name": "Request in-seguro",
			"request": {
				"method": "GET",
				"header": [],
				"body": {
					"mode": "raw",
					"raw": ""
				},
				"url": {
					"raw": ""
				}
			},
			"response": []
		},
		{
			"name": "Request seguro",
			"request": {
				"method": "GET",
				"header": [],
				"body": {
					"mode": "raw",
					"raw": ""
				},
				"url": {
					"raw": ""
				}
			},
			"response": []
		}
	],
	"auth": {
		"type": "bearer",
		"bearer": [
			{
				"key": "token",
				"value": "eyJhbGciOiJSUzI1NiIsInR5cCI6IkpXVCIsImtpZCI6Ik5VTkVRVUl4T0RkRFFVRkVOalZGT1VFNFJqSXpOakk0TkRNd056a3pPVEkyUVVRME4wTkZNZyJ9.eyJpc3MiOiJodHRwczovL3JvZHJjYWx2by5hdXRoMC5jb20vIiwic3ViIjoiMEwxZEpuMEZEV2tRcXBtNWZ5NVRWc2lkdmhldktOUEJAY2xpZW50cyIsImF1ZCI6Imh0dHBzOi8vYmVlci1hcGkuY29tIiwiaWF0IjoxNTgwMDU3NjMxLCJleHAiOjE1ODI2NDk2MzEsImF6cCI6IjBMMWRKbjBGRFdrUXFwbTVmeTVUVnNpZHZoZXZLTlBCIiwiZ3R5IjoiY2xpZW50LWNyZWRlbnRpYWxzIn0.ELm6spqxNs9pgJFLEw3tvxYbVAseXAEaeg2ods9dtYsZX-zj0KqPkDcAOV4qmpfEmtcH-6F_Wwhr0bwx76sbL4T74SlPi7fi6FbOfCn1vDc0XiH24PKCqZmGyltq2-uwu9W8H_X4xGn5WZEt1rcH2VXUUQ4WutW_VLY85AFc_PkVRiIRG4iXU5coKe1VgMFiT9yHgFJ1L-NI_FrMapFV5NQCbe4sm8eEdPCtfPiILTaGTp16nkejKwoBPpHnygrimVHs0p08xGzDwmxYKGF9gnz79bfXQU7xQ2ZD3CwKQyGDRoBF9cNkJxrMHpSXrvy-JL8Aqds1sPaRoKwbhppXxg",
				"type": "string"
			}
		]
	},
	"event": [
		{
			"listen": "prerequest",
			"script": {
				"id": "c1830568-cca5-4ab5-9e11-f0f1cd71dd83",
				"type": "text/javascript",
				"exec": [
					""
				]
			}
		},
		{
			"listen": "test",
			"script": {
				"id": "cf2f738d-34c6-478f-9caf-3f897484c59c",
				"type": "text/javascript",
				"exec": [
					""
				]
			}
		}
	]
}